<?xml version="1.0" encoding="utf-8"?>
<!-- Generator: Adobe Illustrator 22.0.1, SVG Export Plug-In . SVG Version: 6.00 Build 0)  -->
<svg version="1.1" id="Layer_1" xmlns="http://www.w3.org/2000/svg" xmlns:xlink="http://www.w3.org/1999/xlink" x="0px" y="0px"
	 viewBox="0 0 426.5 401.9" style="enable-background:new 0 0 426.5 401.9;" xml:space="preserve">
<style type="text/css">
	.st0{fill:#FFFFFF;}
</style>
<path class="st0" d="M137.1,195H192c-0.3-4.8-0.6-9.6-0.8-14.3c-0.4-10.7-1.2-21.4-1.1-32.2c0.1-9.5,4.8-17.1,12.7-22.5
	c7.9-5.5,16.9-8.6,25.9-11.5c2.6-0.8,4.9,0.2,6.9,2.2c11,11.1,22,22.1,33.1,33.1c4.1,4.1,8.1,8.2,12.4,12.5
	c6.5-6.5,12.7-12.8,19-19.1c8.8-8.8,17.6-17.6,26.4-26.4c2.5-2.5,5.2-3.3,8.4-2c7.2,3,14.6,5.6,21.4,9.2c10.6,5.5,16.1,14.8,16,26.8
	c0,9.3-0.7,18.5-1.2,27.8c-0.3,5.4-0.6,10.8-0.9,16.6H410c6.1,0,8.3,2.2,8.3,8.2V393c0,6-2.2,8.3-8.2,8.3H16.3
	c-5.8,0-8.1-2.3-8.1-8.1V203.3c0-5.8,2.3-8.1,8.2-8.1H58c0.7,0,1.3-0.1,2.2-0.1 M21.2,388h384V208.3H21.3L21.2,388z M205.1,195
	h152.1c0.4-6.1,0.8-12.1,1.1-18c0.4-7.2,1-14.4,1-21.5c0-7.5-2.5-14.1-8.6-18.9c-4.9-3.7-10.4-6.1-16.1-8c-0.8,0-1.5,0.3-2.1,0.8
	c-2.7,2.6-5.3,5.2-7.9,7.9c-12.6,12.6-25.2,25.2-37.9,37.9c-3.9,3.9-7.3,3.9-11.2-0.1l-4.8-4.8c-13.6-13.6-27.2-27.2-40.9-40.8
	c-0.7-0.6-1.6-0.9-2.5-0.8c-4.5,1.8-8.9,3.8-13.2,6.1c-6.1,3.3-10.2,9.4-10.8,16.4c-0.4,2.8-0.5,5.7-0.4,8.6
	C203.6,171.4,204.4,183.1,205.1,195z M73.7,195h49.8"/>
<path class="st0" d="M280.5,0.6c29.9-0.2,54.2,23.9,54.4,53.7c0.2,29.9-23.9,54.2-53.7,54.4c-0.4,0-0.9,0-1.3,0
	c-29.6-0.2-53.7-24.6-53.6-54.4C226.4,24.5,250.7,0.5,280.5,0.6z M281.6,95.6c23.7-1.4,41-20.5,39.6-43.7
	c-1.4-22.7-21-39.7-44.3-38.2c-21.8,1.3-39,21-37.7,43.2C240.6,79.1,259.3,96.4,281.6,95.6L281.6,95.6z"/>
<path class="st0" d="M259.5,113.1l21.6,11.5l-21.6,11.5V113.1z"/>
<path class="st0" d="M281.1,124.6l21.6-11.5V136L281.1,124.6z"/>
<rect x="40.4" y="180" class="st0" width="117" height="20"/>
<rect x="19.4" y="352" class="st0" width="391" height="15"/>
</svg>
